{
  "allowRemoteResourceManagement": false,
  "policyEnforcementMode": "ENFORCING",
  "resources": [
    {
      "name": "Default Resource",
      "uri": "/*",
      "type": "urn:sattva-ng:resources:default",
      "ownerManagedAccess": false,
      "attributes": {},
      "_id": "559c30d5-9fce-4dc4-a2f8-29d4c0e45a63"
    }
  ],
  "policies": [
    {
      "id": "f4fe0c7f-4594-4f53-bb33-0732fe0f69db",
      "name": "ngo-user-policy",
      "type": "role",
      "logic": "POSITIVE",
      "decisionStrategy": "UNANIMOUS",
      "config": {
        "roles": "[{\"id\":\"sattva-ng/ngo-user\",\"required\":true}]"
      }
    },
    {
      "id": "acb20a5d-480d-42cc-b506-1eb16bcb6199",
      "name": "sattva-admin-policy",
      "type": "role",
      "logic": "POSITIVE",
      "decisionStrategy": "UNANIMOUS",
      "config": {
        "roles": "[{\"id\":\"sattva-ng/sattva-admin\",\"required\":true}]"
      }
    },
    {
      "id": "dc60f714-09e7-4186-a72c-fd429c630489",
      "name": "csr-approver-policy",
      "type": "role",
      "logic": "POSITIVE",
      "decisionStrategy": "UNANIMOUS",
      "config": {
        "roles": "[{\"id\":\"sattva-ng/csr-approver\",\"required\":true}]"
      }
    },
    {
      "id": "0eb81e6e-20b3-4488-835f-25cf95a43589",
      "name": "csr-user-policy",
      "type": "role",
      "logic": "POSITIVE",
      "decisionStrategy": "UNANIMOUS",
      "config": {
        "roles": "[{\"id\":\"sattva-ng/csr-user\",\"required\":true}]"
      }
    },
    {
      "id": "d9aed862-55e2-4009-8fdc-1fc9b8a13dd3",
      "name": "csr-admin-policy",
      "type": "role",
      "logic": "POSITIVE",
      "decisionStrategy": "UNANIMOUS",
      "config": {
        "roles": "[{\"id\":\"sattva-ng/csr-admin\",\"required\":true}]"
      }
    },
    {
      "id": "188c5764-7174-44b7-90c1-37857edd2597",
      "name": "limited-view-access",
      "type": "scope",
      "logic": "POSITIVE",
      "decisionStrategy": "UNANIMOUS",
      "config": {
        "scopes": "[\"companyngoselectionchklst:view\",\"country:view\",\"district:view\",\"compngoselfeval:add\",\"companymrktasset:view\",\"state:view\"]",
        "applyPolicies": "[\"ngo-user-policy\"]"
      }
    },
    {
      "id": "afab2cbc-26d9-42be-a37f-25367fa97a46",
      "name": "view-access",
      "type": "scope",
      "logic": "POSITIVE",
      "decisionStrategy": "UNANIMOUS",
      "config": {
        "scopes": "[\"country:view\",\"datatype:view\",\"doctype:view\",\"companycsrcompliancechklst:view\",\"companycsrcomplianceeval:view\",\"applicationrole:view\",\"riskstatus:view\",\"locationcategory:view\",\"project:view\",\"projectshortlistedngosdecision:view\",\"institution:view\",\"ngoselectionchklst:view\",\"riskimpact:view\",\"projectuser:view\",\"projectoutput:view\",\"projectmilestone:view\",\"projectoutcome:view\",\"state:view\",\"frequency:view\",\"sdggoal:view\",\"entity:view\",\"subtargetsegment:view\",\"governance:view\",\"projectneoutputdata:view\",\"projectdoc:view\",\"companyuser:view\",\"risk:view\",\"projectneoutput:view\",\"riskowner:view\",\"taskcategory:view\",\"docclass:view\",\"projectdashboard:view\",\"companyngoselectionchklst:view\",\"task:view\",\"targetsegment:view\",\"csvupload:view\",\"tasknote:view\",\"aggfunc:view\",\"riskprobability:view\",\"companydoc:view\",\"compngoselfeval:view\",\"csrcompliancechklst:view\",\"district:view\",\"companycsroverview:view\",\"projectshortlistedngos:view\",\"companymrktasset:view\",\"mitigationstatus:view\",\"company:view\",\"projectngoselectionchklst:view\",\"projectentitydataformat:view\",\"focusarea:view\",\"entitytype:view\",\"subfocusarea:view\",\"risktype:view\"]",
        "applyPolicies": "[\"csr-user-policy\"]"
      }
    },
    {
      "id": "94108eb6-949a-4049-b808-80583c6b1482",
      "name": "write-access",
      "type": "scope",
      "logic": "POSITIVE",
      "decisionStrategy": "UNANIMOUS",
      "config": {
        "scopes": "[\"task:patch\",\"companydoc:add\",\"companycsrcompliancechklst:view\",\"projectoutcome:patch\",\"companycsroverview:change\",\"companycsrcomplianceeval:view\",\"project:delete\",\"companycsroverview:delete\",\"projectngoselectionchklst:change\",\"riskstatus:view\",\"companyuser:add\",\"projectoutput:add\",\"projectmilestone:delete\",\"projectneoutputdata:patch\",\"projectshortlistedngos:patch\",\"projectshortlistedngosdecision:view\",\"projectngoselectionchklst:add\",\"ngoselectionchklst:view\",\"companyngoselectionchklst:change\",\"company:change\",\"companycsrcompliancechklst:change\",\"projectneoutputdata:add\",\"projectmilestone:view\",\"governance:change\",\"projectdoc:delete\",\"companyngoselectionchklst:patch\",\"projectoutcome:view\",\"risk:patch\",\"companymrktasset:delete\",\"companydoc:patch\",\"sdggoal:view\",\"projectuser:patch\",\"companymrktasset:add\",\"companycsrcomplianceeval:delete\",\"projectoutcome:add\",\"projectdashboard:patch\",\"projectmilestone:add\",\"projectdashboard:change\",\"projectshortlistedngosdecision:change\",\"entity:view\",\"tasknote:patch\",\"projectneoutputdata:change\",\"projectdoc:view\",\"projectdoc:change\",\"companycsroverview:patch\",\"governance:add\",\"projectneoutput:view\",\"companyngoselectionchklst:add\",\"projectentitydataformat:patch\",\"docclass:view\",\"companyuser:delete\",\"projectdashboard:view\",\"projectoutcome:change\",\"companycsrcomplianceeval:patch\",\"targetsegment:view\",\"tasknote:view\",\"aggfunc:view\",\"companycsrcompliancechklst:delete\",\"tasknote:add\",\"riskprobability:view\",\"companycsrcompliancechklst:add\",\"companydoc:view\",\"compngoselfeval:view\",\"csrcompliancechklst:view\",\"district:view\",\"projectentitydataformat:change\",\"projectshortlistedngosdecision:add\",\"compngoselfeval:add\",\"projectshortlistedngos:view\",\"projectuser:delete\",\"projectngoselectionchklst:view\",\"project:change\",\"projectentitydataformat:view\",\"companycsrcompliancechklst:patch\",\"entitytype:view\",\"subfocusarea:view\",\"projectuser:change\",\"projectoutput:patch\",\"companycsroverview:add\",\"projectdashboard:add\",\"country:view\",\"projectneoutput:delete\",\"datatype:view\",\"doctype:view\",\"projectneoutput:change\",\"task:delete\",\"applicationrole:view\",\"tasknote:delete\",\"locationcategory:view\",\"projectoutcome:delete\",\"project:view\",\"institution:view\",\"projectdashboard:delete\",\"projectshortlistedngos:add\",\"projectuser:add\",\"companymrktasset:change\",\"companyuser:patch\",\"task:add\",\"projectmilestone:patch\",\"riskimpact:view\",\"projectneoutputdata:delete\",\"projectuser:view\",\"projectoutput:view\",\"projectshortlistedngos:delete\",\"projectngoselectionchklst:patch\",\"csvupload:add\",\"risk:change\",\"project:add\",\"projectoutput:change\",\"state:view\",\"frequency:view\",\"task:change\",\"companymrktasset:patch\",\"projectdoc:patch\",\"projectshortlistedngosdecision:delete\",\"subtargetsegment:view\",\"governance:view\",\"projectneoutputdata:view\",\"companyuser:view\",\"risk:view\",\"project:patch\",\"projectneoutput:add\",\"companydoc:change\",\"companydoc:delete\",\"projectneoutput:patch\",\"riskowner:view\",\"taskcategory:view\",\"projectentitydataformat:add\",\"companyngoselectionchklst:delete\",\"companyngoselectionchklst:view\",\"projectmilestone:change\",\"task:view\",\"governance:delete\",\"projectngoselectionchklst:delete\",\"csvupload:view\",\"governance:patch\",\"risk:add\",\"projectshortlistedngosdecision:patch\",\"projectoutput:delete\",\"companycsroverview:view\",\"tasknote:change\",\"projectshortlistedngos:change\",\"projectentitydataformat:delete\",\"companymrktasset:view\",\"mitigationstatus:view\",\"companycsrcomplianceeval:add\",\"company:view\",\"projectdoc:add\",\"risk:delete\",\"focusarea:view\",\"companyuser:change\",\"risktype:view\",\"company:patch\",\"companycsrcomplianceeval:change\"]",
        "applyPolicies": "[\"csr-admin-policy\"]"
      }
    },
    {
      "id": "72134a62-1038-4e78-bfdc-ea4cfe3fa14b",
      "name": "full-access",
      "type": "scope",
      "logic": "POSITIVE",
      "decisionStrategy": "UNANIMOUS",
      "config": {
        "scopes": "[\"task:patch\",\"companydoc:add\",\"projectoutcome:patch\",\"companycsroverview:change\",\"project:delete\",\"companycsroverview:delete\",\"projectngoselectionchklst:change\",\"projectoutput:add\",\"mitigationstatus:delete\",\"projectmilestone:delete\",\"frequency:change\",\"projectshortlistedngos:patch\",\"projectshortlistedngosdecision:view\",\"subtargetsegment:add\",\"projectngoselectionchklst:add\",\"datatype:add\",\"companyngoselectionchklst:change\",\"taskcategory:add\",\"companycsrcompliancechklst:change\",\"projectneoutputdata:add\",\"governance:change\",\"projectdoc:delete\",\"companyngoselectionchklst:patch\",\"projectoutcome:view\",\"risk:patch\",\"frequency:patch\",\"companydoc:patch\",\"projectuser:patch\",\"companymrktasset:add\",\"companycsrcomplianceeval:delete\",\"projectmilestone:add\",\"projectdashboard:change\",\"docclass:add\",\"entity:view\",\"csrcompliancechklst:delete\",\"riskowner:patch\",\"docclass:patch\",\"tasknote:patch\",\"projectdoc:change\",\"frequency:delete\",\"companycsroverview:patch\",\"projectneoutput:view\",\"companyngoselectionchklst:add\",\"projectentitydataformat:patch\",\"companyuser:delete\",\"projectoutcome:change\",\"locationcategory:change\",\"companycsrcomplianceeval:patch\",\"csrcompliancechklst:change\",\"companycsrcompliancechklst:add\",\"companydoc:view\",\"datatype:change\",\"csrcompliancechklst:view\",\"company:delete\",\"projectshortlistedngosdecision:add\",\"projectshortlistedngos:view\",\"ngoselectionchklst:patch\",\"datatype:delete\",\"risktype:change\",\"subfocusarea:change\",\"project:change\",\"companycsrcompliancechklst:patch\",\"riskstatus:change\",\"entitytype:view\",\"subfocusarea:view\",\"sdggoal:change\",\"sdggoal:patch\",\"docclass:change\",\"companycsroverview:add\",\"projectdashboard:add\",\"datatype:view\",\"doctype:view\",\"projectneoutput:change\",\"tasknote:delete\",\"locationcategory:view\",\"project:view\",\"csrcompliancechklst:patch\",\"state:change\",\"institution:patch\",\"projectshortlistedngos:add\",\"frequency:add\",\"projectuser:add\",\"companymrktasset:change\",\"companyuser:patch\",\"task:add\",\"applicationrole:change\",\"mitigationstatus:patch\",\"riskstatus:patch\",\"mitigationstatus:change\",\"projectmilestone:patch\",\"district:patch\",\"riskimpact:view\",\"projectoutput:view\",\"subtargetsegment:delete\",\"csvupload:add\",\"risk:change\",\"project:add\",\"doctype:patch\",\"state:patch\",\"aggfunc:change\",\"applicationrole:delete\",\"state:view\",\"frequency:view\",\"task:change\",\"docclass:delete\",\"companymrktasset:patch\",\"subfocusarea:add\",\"subtargetsegment:change\",\"projectdoc:patch\",\"targetsegment:delete\",\"subtargetsegment:view\",\"state:delete\",\"entitytype:delete\",\"risk:view\",\"project:patch\",\"companydoc:change\",\"entity:patch\",\"companydoc:delete\",\"state:add\",\"riskowner:view\",\"taskcategory:view\",\"country:patch\",\"targetsegment:patch\",\"applicationrole:patch\",\"companyngoselectionchklst:delete\",\"companyngoselectionchklst:view\",\"risktype:add\",\"governance:delete\",\"csvupload:view\",\"governance:patch\",\"risk:add\",\"applicationrole:add\",\"projectshortlistedngosdecision:patch\",\"riskimpact:add\",\"projectoutput:delete\",\"riskstatus:add\",\"companycsroverview:view\",\"tasknote:change\",\"riskimpact:patch\",\"entity:add\",\"companycsrcomplianceeval:add\",\"company:view\",\"risk:delete\",\"entitytype:add\",\"locationcategory:delete\",\"focusarea:add\",\"companyuser:change\",\"riskstatus:delete\",\"subtargetsegment:patch\",\"company:patch\",\"risktype:patch\",\"companycsrcompliancechklst:view\",\"institution:change\",\"companycsrcomplianceeval:view\",\"riskstatus:view\",\"companyuser:add\",\"ngoselectionchklst:change\",\"projectneoutputdata:patch\",\"ngoselectionchklst:view\",\"riskowner:change\",\"company:change\",\"focusarea:patch\",\"projectmilestone:view\",\"companymrktasset:delete\",\"locationcategory:patch\",\"sdggoal:view\",\"district:add\",\"projectoutcome:add\",\"district:change\",\"projectdashboard:patch\",\"projectshortlistedngosdecision:change\",\"ngoselectionchklst:add\",\"projectneoutputdata:change\",\"projectdoc:view\",\"sdggoal:add\",\"subfocusarea:delete\",\"governance:add\",\"targetsegment:change\",\"docclass:view\",\"projectdashboard:view\",\"riskimpact:delete\",\"targetsegment:view\",\"tasknote:view\",\"aggfunc:view\",\"companycsrcompliancechklst:delete\",\"tasknote:add\",\"riskprobability:view\",\"entitytype:change\",\"compngoselfeval:view\",\"district:view\",\"projectentitydataformat:change\",\"compngoselfeval:add\",\"datatype:patch\",\"projectuser:delete\",\"district:delete\",\"projectngoselectionchklst:view\",\"projectentitydataformat:view\",\"country:add\",\"mitigationstatus:add\",\"projectuser:change\",\"projectoutput:patch\",\"ngoselectionchklst:delete\",\"entity:change\",\"projectneoutput:delete\",\"country:view\",\"taskcategory:change\",\"task:delete\",\"applicationrole:view\",\"sdggoal:delete\",\"locationcategory:add\",\"projectoutcome:delete\",\"riskprobability:change\",\"subfocusarea:patch\",\"institution:view\",\"projectdashboard:delete\",\"institution:delete\",\"projectneoutputdata:delete\",\"projectuser:view\",\"projectshortlistedngos:delete\",\"projectngoselectionchklst:patch\",\"doctype:delete\",\"riskowner:delete\",\"projectoutput:change\",\"risktype:delete\",\"doctype:change\",\"institution:add\",\"company:add\",\"aggfunc:add\",\"entity:delete\",\"doctype:add\",\"projectshortlistedngosdecision:delete\",\"governance:view\",\"projectneoutputdata:view\",\"riskprobability:patch\",\"companyuser:view\",\"projectneoutput:add\",\"country:delete\",\"aggfunc:patch\",\"projectneoutput:patch\",\"country:change\",\"projectentitydataformat:add\",\"csrcompliancechklst:add\",\"projectmilestone:change\",\"riskimpact:change\",\"task:view\",\"projectngoselectionchklst:delete\",\"riskowner:add\",\"riskprobability:add\",\"riskprobability:delete\",\"aggfunc:delete\",\"focusarea:change\",\"entitytype:patch\",\"taskcategory:delete\",\"projectshortlistedngos:change\",\"projectentitydataformat:delete\",\"companymrktasset:view\",\"focusarea:delete\",\"mitigationstatus:view\",\"targetsegment:add\",\"projectdoc:add\",\"focusarea:view\",\"taskcategory:patch\",\"risktype:view\",\"companycsrcomplianceeval:change\"]",
        "applyPolicies": "[\"sattva-admin-policy\"]"
      }
    }
  ],
  "scopes": [
    {
      "id": "af2d51d8-f818-4da6-96da-057a6c85a7db",
      "name": "project:delete"
    },
    {
      "id": "1d435eb2-cd29-47d0-b625-c9802003ced7",
      "name": "project:change"
    },
    {
      "id": "3c7a0ed1-f618-462e-98ba-fbe6fd768591",
      "name": "project:add"
    },
    {
      "id": "12477985-221d-45e0-9726-efd1ecc00ae1",
      "name": "project:view"
    },
    {
      "id": "feb968d9-f421-46a9-8728-3ffd7d2d7693",
      "name": "project:patch"
    },
    {
      "id": "26bc2455-1135-4449-9935-0011705d3531",
      "name": "projectentitydataformat:view"
    },
    {
      "id": "a34db6f3-396c-4c81-8cb6-6d3fefcc30d0",
      "name": "projectentitydataformat:add"
    },
    {
      "id": "0c1f3061-3bd6-4213-9182-41155914cb0a",
      "name": "projectentitydataformat:change"
    },
    {
      "id": "0666dbe0-ae66-4201-8464-0fc570bf16e5",
      "name": "projectentitydataformat:delete"
    },
    {
      "id": "7de0fb04-3a15-497e-abd1-2cd05d0e158a",
      "name": "projectentitydataformat:patch"
    },
    {
      "id": "e156adfd-db2f-4e3b-8bcf-e6263929741d",
      "name": "projectoutput:view"
    },
    {
      "id": "0bb39d67-4973-4a5a-a5fa-1ec4b3bf06d5",
      "name": "projectoutput:add"
    },
    {
      "id": "2a7c23c3-f669-40bd-bddd-5b604279aae2",
      "name": "projectoutput:change"
    },
    {
      "id": "9121fe4f-640c-4e97-ab7e-2a07705c030d",
      "name": "projectoutput:delete"
    },
    {
      "id": "f797a73f-e1e8-4c47-b3a3-a01c36bf6b07",
      "name": "projectoutput:patch"
    },
    {
      "id": "d743a58a-e46b-43ad-aeb2-158248d458fd",
      "name": "projectneoutput:view"
    },
    {
      "id": "15d64589-1d3a-4d71-9b42-00226fe843a7",
      "name": "projectneoutput:add"
    },
    {
      "id": "dc092808-3416-41fc-aece-1420942eaf7a",
      "name": "projectneoutput:change"
    },
    {
      "id": "8d0c8310-4c68-4904-86df-7ac48938a151",
      "name": "projectneoutput:delete"
    },
    {
      "id": "416e4d6d-b30e-49d3-b095-46b7503f00af",
      "name": "projectneoutput:patch"
    },
    {
      "id": "ed1134f1-377b-454b-a964-7bda0cb60810",
      "name": "projectoutcome:view"
    },
    {
      "id": "80e71441-f37d-497d-b22e-5181b9f70513",
      "name": "projectoutcome:add"
    },
    {
      "id": "5b29dd8b-ff30-41ad-a289-89bab993312f",
      "name": "projectoutcome:change"
    },
    {
      "id": "bf5e39a2-0868-4164-a1ef-31f14a43b283",
      "name": "projectoutcome:delete"
    },
    {
      "id": "c404cf92-9e5a-466a-9f27-989042418e83",
      "name": "projectoutcome:patch"
    },
    {
      "id": "f20fb5e4-d009-4806-be4a-5c268819e6a9",
      "name": "country:view"
    },
    {
      "id": "2ffe945a-730d-4daf-a4be-69ec6e41d4f9",
      "name": "country:add"
    },
    {
      "id": "834c49be-38e2-486d-8bd1-ec25e85211f3",
      "name": "country:change"
    },
    {
      "id": "1e81d0ba-133b-42c6-81ab-368b7b6518b1",
      "name": "country:delete"
    },
    {
      "id": "1ec0b79d-e426-46fa-8b0c-d8e387f86eea",
      "name": "country:patch"
    },
    {
      "id": "f950beb3-5427-4d77-acba-79f13a579dcd",
      "name": "state:view"
    },
    {
      "id": "c64232a6-9169-4a52-b48d-0f2e9715231b",
      "name": "state:add"
    },
    {
      "id": "e7b31fb5-c45e-41ae-953a-9ff04758dc38",
      "name": "state:change"
    },
    {
      "id": "d7ae4b69-9710-4f4a-b83a-7fa464e8e9cf",
      "name": "state:delete"
    },
    {
      "id": "3dbdbfff-68c3-44c3-b657-5eab863ca902",
      "name": "state:patch"
    },
    {
      "id": "a1027c9c-de99-474d-ade3-6de6a3f933a9",
      "name": "district:view"
    },
    {
      "id": "2e7b71ba-cb7e-44d1-bd3d-08c54bd6fb4e",
      "name": "district:add"
    },
    {
      "id": "090e8ac5-e7c5-4adc-b848-f2a149aa7acc",
      "name": "district:change"
    },
    {
      "id": "1f4663ec-66d3-4e8d-9c15-68c5959eb72b",
      "name": "district:delete"
    },
    {
      "id": "5588c0a9-4dc2-42e2-8720-0644ebc62643",
      "name": "district:patch"
    },
    {
      "id": "43a3a54f-074e-48ef-b78c-d24413b84a99",
      "name": "locationcategory:view"
    },
    {
      "id": "aa10b2c1-bc40-4b0c-8876-ad4972d9c518",
      "name": "locationcategory:add"
    },
    {
      "id": "b828deca-0146-46cc-9aa7-7a41c37c4595",
      "name": "locationcategory:change"
    },
    {
      "id": "1fa60219-7fd4-4791-96f0-3f292501ed46",
      "name": "locationcategory:delete"
    },
    {
      "id": "55e5cf21-3dde-4b76-bc07-4de5c11243b5",
      "name": "locationcategory:patch"
    },
    {
      "id": "cee1e08c-c9e0-42d4-85b3-7f03505bafa1",
      "name": "focusarea:view"
    },
    {
      "id": "5ff8726c-1fea-4c8e-b289-163223959082",
      "name": "focusarea:add"
    },
    {
      "id": "500ee90d-7c1a-44bd-9c07-c6bf51305058",
      "name": "focusarea:change"
    },
    {
      "id": "2792fd8e-5c35-476f-af97-551fc0cc22a1",
      "name": "focusarea:delete"
    },
    {
      "id": "30c1691f-630d-4f67-a933-042b5e8233c2",
      "name": "focusarea:patch"
    },
    {
      "id": "1f3163e6-2945-415f-8e53-818eb5b0e9a2",
      "name": "subfocusarea:view"
    },
    {
      "id": "908551c6-28e5-41b1-a7ce-d972f9abe7b0",
      "name": "subfocusarea:add"
    },
    {
      "id": "e50013c5-47b3-4781-88f9-1a0916c4a784",
      "name": "subfocusarea:change"
    },
    {
      "id": "9b4016f0-445a-4553-a74c-cdb5e875a762",
      "name": "subfocusarea:delete"
    },
    {
      "id": "0d23eb66-d215-4ad5-929a-a981104cdcfc",
      "name": "institution:view"
    },
    {
      "id": "0ff53a79-1b49-4cc8-9a9b-51c740649f71",
      "name": "institution:add"
    },
    {
      "id": "e3e92bcc-979b-4170-b094-4eb2abfa9458",
      "name": "institution:change"
    },
    {
      "id": "db2f993e-a223-4535-bfb5-b9abc2640247",
      "name": "institution:delete"
    },
    {
      "id": "9f7337a3-6021-4ba0-84f7-48ab0e407030",
      "name": "institution:patch"
    },
    {
      "id": "e8fde779-4974-4a57-9451-25f88ff9952e",
      "name": "sdggoal:add"
    },
    {
      "id": "e19188f5-d973-4080-9488-f45e1d68c2ad",
      "name": "sdggoal:delete"
    },
    {
      "id": "90043baf-c9e8-42de-86df-15d8dea02c1e",
      "name": "sdggoal:change"
    },
    {
      "id": "7fce0fbb-deee-4d03-9020-34f12b0aa20e",
      "name": "subfocusarea:patch"
    },
    {
      "id": "0669dbcc-84f8-42d6-8bcd-f53bc89e6216",
      "name": "sdggoal:view"
    },
    {
      "id": "86c7b1d6-d89e-4a12-98c1-f59a9aa449e8",
      "name": "sdggoal:patch"
    },
    {
      "id": "bdec3e6b-087c-4740-872b-313e841544ea",
      "name": "targetsegment:view"
    },
    {
      "id": "05724191-6a1d-4525-b733-47561dc5b2d7",
      "name": "targetsegment:add"
    },
    {
      "id": "b9887cb4-3dec-44a8-8e3c-00349b7cb777",
      "name": "targetsegment:change"
    },
    {
      "id": "2d94af3e-0bbb-4c07-a647-7ec89ac62d46",
      "name": "targetsegment:delete"
    },
    {
      "id": "799a857f-881b-4ebe-8e3d-499de6acee81",
      "name": "targetsegment:patch"
    },
    {
      "id": "9c5cf15d-999b-4b51-a0b0-07b2cd70db8a",
      "name": "subtargetsegment:view"
    },
    {
      "id": "36638d83-6f9b-4bf0-9696-a514f7302358",
      "name": "subtargetsegment:add"
    },
    {
      "id": "ab54928b-e362-427a-ad06-b85b75bdddd8",
      "name": "subtargetsegment:change"
    },
    {
      "id": "54890cb0-680b-4780-8a33-631a43278608",
      "name": "subtargetsegment:delete"
    },
    {
      "id": "d3e58607-9a93-46f9-8c2b-1a5e1b7a76fa",
      "name": "subtargetsegment:patch"
    },
    {
      "id": "84a43936-ede3-4c43-9532-34744905aec2",
      "name": "applicationrole:view"
    },
    {
      "id": "3c22db1f-e42b-4b14-8e8a-535073732464",
      "name": "applicationrole:add"
    },
    {
      "id": "d951afd5-12f3-41f5-9c73-d2236dadb7ee",
      "name": "applicationrole:change"
    },
    {
      "id": "e49afc76-f6e1-42e5-81e1-d959e1ea4df3",
      "name": "applicationrole:delete"
    },
    {
      "id": "9310ab3a-c257-4222-829f-f080e0ed5724",
      "name": "applicationrole:patch"
    },
    {
      "id": "7e4ecd83-ceb8-488a-92c7-9ac93c465233",
      "name": "datatype:view"
    },
    {
      "id": "d9798043-ff8d-46fc-bf4a-0472f62dbe7d",
      "name": "datatype:add"
    },
    {
      "id": "9f14cd75-9b42-4955-8a42-bdd797b6ada9",
      "name": "datatype:change"
    },
    {
      "id": "e9c82632-2ea5-43f2-8c7f-aa46997e6f3f",
      "name": "datatype:delete"
    },
    {
      "id": "ef2f1752-f0eb-41d0-bf31-f489d161ffc4",
      "name": "datatype:patch"
    },
    {
      "id": "2f0c413f-0085-49b9-bb12-5244b07af6f3",
      "name": "frequency:view"
    },
    {
      "id": "57cbe4ee-1330-46d5-b84d-a95b20730543",
      "name": "frequency:add"
    },
    {
      "id": "9d9fb091-8b9c-4b11-8857-b9b5a4624181",
      "name": "frequency:change"
    },
    {
      "id": "8c636149-0f0e-4cc8-b485-3984b36400e4",
      "name": "frequency:delete"
    },
    {
      "id": "cf0a8b3e-96c8-4b53-afff-c1add11e02cd",
      "name": "frequency:patch"
    },
    {
      "id": "649324cc-e93c-4ad9-8ceb-144d168e9181",
      "name": "entitytype:view"
    },
    {
      "id": "6c1f1b12-3b1d-4f12-92e9-610d0b45e98b",
      "name": "entitytype:add"
    },
    {
      "id": "07897724-3295-4637-be42-69c3aa0f0891",
      "name": "entitytype:change"
    },
    {
      "id": "d3fb42d9-fd12-4eac-ba72-440ff95821cc",
      "name": "entitytype:delete"
    },
    {
      "id": "d7a19bfe-2b47-439c-a4ee-b0b46cf68db2",
      "name": "entitytype:patch"
    },
    {
      "id": "633c5699-7cc3-4c0d-a2e3-d5b97ed56e71",
      "name": "entity:view"
    },
    {
      "id": "e281684c-acf6-42b1-97d5-52a76fab0b7a",
      "name": "entity:add"
    },
    {
      "id": "31197fe8-d15a-445f-992f-88b3b4aea4d1",
      "name": "entity:delete"
    },
    {
      "id": "6adaf5a4-7fcd-4eb9-b3ec-d3397d43087e",
      "name": "entity:change"
    },
    {
      "id": "7db50526-eb47-4d62-a7dc-f8ad3b0b8272",
      "name": "entity:patch"
    },
    {
      "id": "14d91e29-f913-4a34-a195-cac8f1e7ebf4",
      "name": "aggfunc:view"
    },
    {
      "id": "3224d348-cf84-4873-951a-bf0f08adb398",
      "name": "aggfunc:add"
    },
    {
      "id": "135488b5-ca6a-4690-b9d4-d3946189dd8e",
      "name": "aggfunc:change"
    },
    {
      "id": "0ea81d2b-232c-4e77-99ba-cede7ff743f4",
      "name": "aggfunc:delete"
    },
    {
      "id": "b9caf9e8-f7fc-4507-8387-2b6072ed667c",
      "name": "aggfunc:patch"
    },
    {
      "id": "f44ae40d-cf5e-46f9-b2c8-dc9f8bc241df",
      "name": "doctype:view"
    },
    {
      "id": "137f32c9-16b9-4d00-afc3-131e8821aec2",
      "name": "doctype:add"
    },
    {
      "id": "dcef258b-e9d7-421c-83b2-1d4a2e310a3c",
      "name": "doctype:change"
    },
    {
      "id": "a73baf7b-ab48-4e38-85ea-cc2b09d5590d",
      "name": "doctype:delete"
    },
    {
      "id": "8fde30d5-7785-4d98-8b37-63970d9dda40",
      "name": "doctype:patch"
    },
    {
      "id": "48635d7c-e2a5-43ae-b1bc-fab3dff2f328",
      "name": "docclass:view"
    },
    {
      "id": "c7e2375c-1c3c-4816-a166-76dbff5b2187",
      "name": "docclass:add"
    },
    {
      "id": "0388e3cb-9ce9-4efc-b2a2-e9302069de9d",
      "name": "docclass:change"
    },
    {
      "id": "4605be30-5a9f-4a51-bc04-8ef34ba1724e",
      "name": "docclass:delete"
    },
    {
      "id": "3335c0d4-dce6-49cf-9146-471fbc9cd533",
      "name": "docclass:patch"
    },
    {
      "id": "0de4a8c2-c9c4-4735-9159-6f29d56f532d",
      "name": "csrcompliancechklst:view"
    },
    {
      "id": "661e9a53-4ac7-4eee-bba4-56ef84dffc6c",
      "name": "csrcompliancechklst:add"
    },
    {
      "id": "c8205f3d-8a67-4f99-ac43-c208b9f3ef0d",
      "name": "csrcompliancechklst:delete"
    },
    {
      "id": "1388092e-3ddf-49e2-a141-9c5aeb496f2f",
      "name": "csrcompliancechklst:change"
    },
    {
      "id": "2b4220a7-bd19-477d-b7c1-665cc71c1246",
      "name": "csrcompliancechklst:patch"
    },
    {
      "id": "e5b63c58-5fb3-4845-93b1-fd0fbeb2b8ef",
      "name": "ngoselectionchklst:view"
    },
    {
      "id": "7ea30aa8-8b66-4abf-93ba-f199a5d479e2",
      "name": "ngoselectionchklst:add"
    },
    {
      "id": "7bbd0bef-2006-4044-8201-2e3ea461f167",
      "name": "ngoselectionchklst:change"
    },
    {
      "id": "bc7d2465-b860-4809-8288-bdf88d420a97",
      "name": "ngoselectionchklst:delete"
    },
    {
      "id": "2f823230-affc-4a82-a613-f18d69850a31",
      "name": "ngoselectionchklst:patch"
    },
    {
      "id": "35c3f303-5fe4-4477-926f-84efb134a120",
      "name": "riskimpact:view"
    },
    {
      "id": "0d07e61c-cf84-4ef6-84cf-04ee1f26fc45",
      "name": "riskimpact:add"
    },
    {
      "id": "33b0ea6f-0766-430d-aa4a-119e2e9cba51",
      "name": "riskimpact:change"
    },
    {
      "id": "86140d0b-6be0-4d0d-9cd0-2adb6fc1d433",
      "name": "riskimpact:delete"
    },
    {
      "id": "dc30c23d-67b0-4da4-9263-bad25ae37818",
      "name": "riskimpact:patch"
    },
    {
      "id": "d5baebe4-0419-432a-ac6c-09c76cf96877",
      "name": "riskprobability:view"
    },
    {
      "id": "e6449d54-79ee-4d55-a4d4-7986726e71e5",
      "name": "riskprobability:add"
    },
    {
      "id": "4ea61a4b-cff3-498b-9647-6ae139d64deb",
      "name": "riskprobability:change"
    },
    {
      "id": "99c952b0-7347-4bf1-8b21-ae4639819c0b",
      "name": "riskprobability:delete"
    },
    {
      "id": "32510770-ceb6-40f7-975d-61a6f05a8603",
      "name": "riskprobability:patch"
    },
    {
      "id": "693c62a5-b8e2-4d29-bab8-6c293482600a",
      "name": "riskstatus:view"
    },
    {
      "id": "3d9e91c9-6197-4aca-a532-17021bf06362",
      "name": "riskstatus:add"
    },
    {
      "id": "cc913c76-7eaa-4027-8b3f-040d2a4c42b0",
      "name": "riskstatus:change"
    },
    {
      "id": "08b3b535-a5b4-4676-b4ef-6d6f115792ba",
      "name": "riskstatus:delete"
    },
    {
      "id": "c8a40eb0-b1da-4fa5-bda8-829905d68c70",
      "name": "riskstatus:patch"
    },
    {
      "id": "24c43650-8e42-4c4a-9da0-8e00afd9a7fd",
      "name": "risktype:view"
    },
    {
      "id": "c2847be7-b761-4e52-a833-ca6a1b713095",
      "name": "risktype:add"
    },
    {
      "id": "54c96b11-b0e3-41bf-bff8-0e5ceaa7cd1b",
      "name": "risktype:change"
    },
    {
      "id": "997b6920-0dfd-4d4c-923f-d41912a2fce4",
      "name": "risktype:delete"
    },
    {
      "id": "0702cd88-f710-4561-b0a6-9896627c4827",
      "name": "risktype:patch"
    },
    {
      "id": "4f12e384-568a-4e17-8087-ff2869ba3e13",
      "name": "riskowner:view"
    },
    {
      "id": "aa97dbc7-da6a-430a-910c-2c615d601192",
      "name": "riskowner:add"
    },
    {
      "id": "d12dd978-bd6a-4d12-a4dc-fa48f91beda2",
      "name": "riskowner:change"
    },
    {
      "id": "d24ff2d9-ba92-4a57-a7c2-e6d9cce5f981",
      "name": "riskowner:delete"
    },
    {
      "id": "f6223eb1-07a8-40af-aa56-9df0479981bd",
      "name": "riskowner:patch"
    },
    {
      "id": "8b789ac4-2ea5-414a-bf20-5466d6f4d641",
      "name": "mitigationstatus:view"
    },
    {
      "id": "dbdd9401-03ad-41f7-998a-5ed0f4bc0012",
      "name": "mitigationstatus:change"
    },
    {
      "id": "829b6000-06d8-46d5-854a-1723eb6f8e13",
      "name": "mitigationstatus:add"
    },
    {
      "id": "a4c503e3-a548-4d8d-99ba-3f4fc37de178",
      "name": "mitigationstatus:delete"
    },
    {
      "id": "86fc35c3-7791-41a0-8a0e-a28be77cb85c",
      "name": "mitigationstatus:patch"
    },
    {
      "id": "9bd93a31-6493-4acf-863d-bf1a8305d5f0",
      "name": "taskcategory:view"
    },
    {
      "id": "ebc1751e-d3bb-4868-bbc4-f8e5d7b6e5e0",
      "name": "taskcategory:add"
    },
    {
      "id": "ab71df88-369d-4e76-bc83-414c52760810",
      "name": "taskcategory:change"
    },
    {
      "id": "1bd5a81a-ffc5-45ae-9f70-dbeda55764c0",
      "name": "taskcategory:delete"
    },
    {
      "id": "95169169-d37f-4b6b-b8c5-86d32b6e1ece",
      "name": "taskcategory:patch"
    },
    {
      "id": "7ba54ec1-375a-4b73-9e8f-e2b6567abf0e",
      "name": "company:view"
    },
    {
      "id": "b3196198-27c6-4035-bf43-233125e74b02",
      "name": "company:add"
    },
    {
      "id": "c6dbf552-fe21-4d43-a4b6-db65c59fccb9",
      "name": "company:change"
    },
    {
      "id": "33f639e9-2295-43b1-83de-005a188551b9",
      "name": "company:delete"
    },
    {
      "id": "5524e5c1-0ab0-4e03-a271-43e1ee7b607b",
      "name": "company:patch"
    },
    {
      "id": "c7e86aa2-b91b-4925-b0e3-9caa215be36e",
      "name": "companycsroverview:view"
    },
    {
      "id": "0113bd37-5cf4-4819-81a1-1f76f2cabb20",
      "name": "companycsroverview:add"
    },
    {
      "id": "5c5758c8-b0c3-4d06-9168-4a31e7db40e7",
      "name": "companycsroverview:change"
    },
    {
      "id": "4858b715-b8ab-4331-9610-85e578d7da24",
      "name": "companycsroverview:delete"
    },
    {
      "id": "eef371f5-7a12-48ed-99d0-806418df518c",
      "name": "companycsroverview:patch"
    },
    {
      "id": "6ea4f9af-5046-45af-83f5-9ff757f709bc",
      "name": "companyuser:view"
    },
    {
      "id": "eb5c67de-7c0f-431b-9a82-9c944a21d3a5",
      "name": "companyuser:add"
    },
    {
      "id": "ec0decbf-4ffc-4d6d-9a0f-d7cffc3febb4",
      "name": "companyuser:change"
    },
    {
      "id": "6c30fbf6-e081-471a-99a1-51996fb64ba5",
      "name": "companyuser:delete"
    },
    {
      "id": "c0525cf4-8417-434c-8f1a-e74c987c9954",
      "name": "companyuser:patch"
    },
    {
      "id": "63435706-4b7c-4ed3-9468-cad7709cc7e7",
      "name": "companymrktasset:view"
    },
    {
      "id": "392a9a17-beb5-4412-b268-6aeb5f7b0dc2",
      "name": "companymrktasset:add"
    },
    {
      "id": "277ea661-67f7-4b1f-a88e-bb5e13c619ba",
      "name": "companymrktasset:change"
    },
    {
      "id": "e2a38117-0aa6-453b-a897-a47e4cf83618",
      "name": "companymrktasset:delete"
    },
    {
      "id": "738848fc-971a-43eb-8c93-5ab8ebac065e",
      "name": "companymrktasset:patch"
    },
    {
      "id": "a33cf384-4eef-4b1a-83d7-4474ca24c47c",
      "name": "companydoc:view"
    },
    {
      "id": "6bb924dc-1f53-49d5-ab1e-2cca867dd0df",
      "name": "companydoc:add"
    },
    {
      "id": "18d684a7-ed52-4e75-b7d2-a06facbd30c0",
      "name": "companydoc:change"
    },
    {
      "id": "7e34512d-031f-4d4a-89a0-3918a5c807de",
      "name": "companydoc:delete"
    },
    {
      "id": "58fb2233-e74e-48fd-9b21-9f9e7c04aeda",
      "name": "companydoc:patch"
    },
    {
      "id": "32fb7bcc-ff70-491b-bc7c-6432332e99ce",
      "name": "projectneoutputdata:view"
    },
    {
      "id": "92fd57ab-7c1b-4bbd-b669-a7424cc2c711",
      "name": "projectneoutputdata:add"
    },
    {
      "id": "717c5630-d1c6-4816-bcd1-42f845aa3286",
      "name": "projectneoutputdata:delete"
    },
    {
      "id": "9a1a5436-b98d-4c52-9a2d-24414cece156",
      "name": "projectneoutputdata:change"
    },
    {
      "id": "a0c47faf-ad6f-46b1-a5cd-8188ffca077c",
      "name": "projectneoutputdata:patch"
    },
    {
      "id": "b18f3ff9-fe1f-4a1c-b3bf-7c56efbfc34c",
      "name": "csvupload:view"
    },
    {
      "id": "bdaffaed-0c23-4f36-9d57-517ff8963b9e",
      "name": "csvupload:add"
    },
    {
      "id": "2d315355-c575-4451-aef2-00b5632d8bb9",
      "name": "projectdashboard:view"
    },
    {
      "id": "3ace401f-49ba-4892-af53-db252234cc01",
      "name": "projectdashboard:add"
    },
    {
      "id": "2e91505a-bac7-4e73-a3cd-d26f58770a24",
      "name": "projectdashboard:change"
    },
    {
      "id": "fd35ce8b-ac0e-410d-a15c-8c98ce4dc4ae",
      "name": "projectdashboard:delete"
    },
    {
      "id": "3289803f-b80e-48be-8af8-4e0c526fe202",
      "name": "projectdashboard:patch"
    },
    {
      "id": "63b0f7f4-1b3c-4788-ad68-b20a65344aef",
      "name": "risk:view"
    },
    {
      "id": "5a43e9d2-5726-42a4-8690-e99437e14c8e",
      "name": "risk:add"
    },
    {
      "id": "dc27887c-23f3-4d2f-8080-f3f13b47a8ba",
      "name": "risk:change"
    },
    {
      "id": "64db1a1d-d531-4595-8821-7886c3f42b18",
      "name": "risk:delete"
    },
    {
      "id": "ec6f266c-bc79-465f-85d6-336695fa5503",
      "name": "risk:patch"
    },
    {
      "id": "774c38f5-2f68-4d57-8922-6221ea4c8d2c",
      "name": "projectuser:view"
    },
    {
      "id": "65a90841-971e-4e3f-a82e-97685e1a412b",
      "name": "projectuser:add"
    },
    {
      "id": "c173ea26-77bd-41a4-80f2-13aa6d720af6",
      "name": "projectuser:change"
    },
    {
      "id": "757ce872-bf01-44d5-a721-7d58a1b37656",
      "name": "projectuser:delete"
    },
    {
      "id": "d63f1b6f-8081-44f9-b295-8f5e0a38132d",
      "name": "projectuser:patch"
    },
    {
      "id": "6af9239c-0b37-4718-8c1e-994eb4fbf29a",
      "name": "projectdoc:add"
    },
    {
      "id": "c4d73c97-64d4-4963-8aa9-fdff688489a0",
      "name": "projectdoc:view"
    },
    {
      "id": "871ce9b8-d712-4e56-8ebb-1e62ef7881c0",
      "name": "projectdoc:change"
    },
    {
      "id": "d5cc15b9-ad83-4858-8c4f-c7ad225a1367",
      "name": "projectdoc:delete"
    },
    {
      "id": "c0910a4b-e0c9-4fe1-ad5b-80bbc06f3a99",
      "name": "projectdoc:patch"
    },
    {
      "id": "ca9c0fbc-a4d3-4732-95ac-65b027b3c75f",
      "name": "task:add"
    },
    {
      "id": "ccbec236-d573-4a25-9782-aba96da1d28c",
      "name": "task:view"
    },
    {
      "id": "c2e98242-47ee-49e4-9d36-d43c388f1639",
      "name": "task:change"
    },
    {
      "id": "5381606d-070c-42a3-bbeb-3a71c4feb1dc",
      "name": "task:delete"
    },
    {
      "id": "f738a0e4-deac-4b1a-a124-e33c808294cc",
      "name": "task:patch"
    },
    {
      "id": "7702ac10-12f7-4c01-9997-4cb4c08d7fb4",
      "name": "tasknote:view"
    },
    {
      "id": "f6edc010-4173-4732-8b27-267b690fb63d",
      "name": "tasknote:add"
    },
    {
      "id": "1502b0ef-ae47-46b2-a8ac-46f79bdbfe35",
      "name": "tasknote:change"
    },
    {
      "id": "716887cf-71b5-4978-abf5-dc1e0df2077f",
      "name": "tasknote:delete"
    },
    {
      "id": "b435de2b-68bb-42e4-bf9e-8402fb52cd9c",
      "name": "tasknote:patch"
    },
    {
      "id": "f8f5eb68-6969-4ee9-882e-c2b43415128a",
      "name": "projectmilestone:view"
    },
    {
      "id": "29e1a395-bd53-4f82-8dcc-398db63852ba",
      "name": "projectmilestone:add"
    },
    {
      "id": "799797df-39d5-4500-9540-39a6f24261f0",
      "name": "projectmilestone:change"
    },
    {
      "id": "c85f903f-ec49-4bb0-8dab-678977051683",
      "name": "projectmilestone:delete"
    },
    {
      "id": "3745a1b0-5727-4b80-b94e-6c95267811f7",
      "name": "projectmilestone:patch"
    },
    {
      "id": "32d6e071-6ce2-4cf4-9ab9-4b495fe03b5f",
      "name": "governance:view"
    },
    {
      "id": "8df05a01-0a2f-4787-ae39-f0945ea587b2",
      "name": "governance:add"
    },
    {
      "id": "a643ce81-1886-4f37-b443-b26637f47c82",
      "name": "governance:change"
    },
    {
      "id": "797fc311-099a-4211-8656-6d582bb79685",
      "name": "governance:delete"
    },
    {
      "id": "3f400709-1878-45d8-8354-9de1d511d5fe",
      "name": "governance:patch"
    },
    {
      "id": "73cd461d-0924-490a-af17-f08d4b09974c",
      "name": "companycsrcompliancechklst:add"
    },
    {
      "id": "10f68b9b-1fb9-4b93-af0f-5e813b58ee34",
      "name": "companycsrcompliancechklst:view"
    },
    {
      "id": "41e52a8d-893a-4eb0-b1a1-d11472fec002",
      "name": "companycsrcompliancechklst:change"
    },
    {
      "id": "de1e6f65-a740-40a7-a7d5-7d3195df0926",
      "name": "companycsrcompliancechklst:delete"
    },
    {
      "id": "a844b1f4-61cc-41e6-a3e4-acc95c0897a8",
      "name": "companycsrcompliancechklst:patch"
    },
    {
      "id": "83c8cc14-bd66-41ad-b0bf-bbada307bea7",
      "name": "companycsrcomplianceeval:add"
    },
    {
      "id": "36c6e0f1-21a8-4b82-a196-a6ac6844f58f",
      "name": "companycsrcomplianceeval:view"
    },
    {
      "id": "42cc0604-3578-44e3-b708-02e37608ede4",
      "name": "companycsrcomplianceeval:change"
    },
    {
      "id": "a2882258-c67e-4d9b-b333-9a9ca3b04e4a",
      "name": "companycsrcomplianceeval:delete"
    },
    {
      "id": "00eb0d17-e057-41a4-b334-dfe63084fbd0",
      "name": "companycsrcomplianceeval:patch"
    },
    {
      "id": "3fe10a4b-8657-4362-b645-e41a68a8a621",
      "name": "companyngoselectionchklst:add"
    },
    {
      "id": "a4ffacf5-3ace-49f6-b8ed-1fbb33d35410",
      "name": "companyngoselectionchklst:view"
    },
    {
      "id": "926396f7-8130-427d-9f34-e28b29dfd194",
      "name": "companyngoselectionchklst:change"
    },
    {
      "id": "d45c3375-1a73-488a-8996-e130f7efc4e4",
      "name": "companyngoselectionchklst:delete"
    },
    {
      "id": "a59aab84-69c3-4229-84c3-4bbda09d1fc2",
      "name": "companyngoselectionchklst:patch"
    },
    {
      "id": "e3b13df5-4917-4fe9-9fb0-83cb64bca0a6",
      "name": "projectngoselectionchklst:view"
    },
    {
      "id": "df57e917-a3f8-4025-9e4b-d4056e836877",
      "name": "projectngoselectionchklst:add"
    },
    {
      "id": "0cbdd0b8-86bf-43ae-80b2-c8af1faf6872",
      "name": "projectngoselectionchklst:change"
    },
    {
      "id": "fab7c6da-00a5-4a56-9d33-b144e3a02626",
      "name": "projectngoselectionchklst:delete"
    },
    {
      "id": "c3fa141d-06e1-4450-9775-eae56e4b7369",
      "name": "projectngoselectionchklst:patch"
    },
    {
      "id": "7955bdac-15d3-4197-93ee-70e8361b623b",
      "name": "projectshortlistedngosdecision:view"
    },
    {
      "id": "c05d3f60-5e86-4fd0-a2ed-71bbdde0abe9",
      "name": "projectshortlistedngosdecision:add"
    },
    {
      "id": "c04182aa-7997-41d1-8442-0f098397bf65",
      "name": "projectshortlistedngosdecision:delete"
    },
    {
      "id": "92ae0109-c180-4ab7-8362-c73576fd62de",
      "name": "projectshortlistedngosdecision:change"
    },
    {
      "id": "c7b807f7-33eb-4525-bdf6-0a5c71d41755",
      "name": "projectshortlistedngosdecision:patch"
    },
    {
      "id": "65f398f8-51d3-47ba-9cf2-61d078905f2c",
      "name": "compngoselfeval:view"
    },
    {
      "id": "1920ff32-5a86-4162-a96c-d7b8afb63db9",
      "name": "projectshortlistedngos:view"
    },
    {
      "id": "c75e35af-5430-4bb8-b3f5-74404b8419a0",
      "name": "projectshortlistedngos:add"
    },
    {
      "id": "98e29e83-e7d9-45da-a213-e7194d7868d6",
      "name": "projectshortlistedngos:change"
    },
    {
      "id": "18016eb6-983b-4899-818f-9a264f97cb4a",
      "name": "projectshortlistedngos:delete"
    },
    {
      "id": "85ac0424-fb0b-453c-b315-0a655d6fcf40",
      "name": "projectshortlistedngos:patch"
    },
    {
      "id": "3b5fdb2b-4422-45e8-a49e-8026ce9c69e9",
      "name": "compngoselfeval:add"
    }
  ]
}
