[
  {
    "model": "domainlibraries.institution",
    "pk": 1,
    "fields": {
      "created_date": "2018-05-28T04:15:24.920Z",
      "created_by": "saikatdey",
      "updated_date": null,
      "updated_by": null,
      "institution_name": "Anganwadis"
    }
  },
  {
    "model": "domainlibraries.institution",
    "pk": 2,
    "fields": {
      "created_date": "2018-05-28T04:15:24.920Z",
      "created_by": "saikatdey",
      "updated_date": null,
      "updated_by": null,
      "institution_name": "Block Resource Centre"
    }
  },
  {
    "model": "domainlibraries.institution",
    "pk": 3,
    "fields": {
      "created_date": "2018-05-28T04:15:24.920Z",
      "created_by": "saikatdey",
      "updated_date": null,
      "updated_by": null,
      "institution_name": "Cluster Resource Centre"
    }
  },
  {
    "model": "domainlibraries.institution",
    "pk": 4,
    "fields": {
      "created_date": "2018-05-28T04:15:24.920Z",
      "created_by": "saikatdey",
      "updated_date": null,
      "updated_by": null,
      "institution_name": "College"
    }
  },
  {
    "model": "domainlibraries.institution",
    "pk": 5,
    "fields": {
      "created_date": "2018-05-28T04:15:24.920Z",
      "created_by": "saikatdey",
      "updated_date": null,
      "updated_by": null,
      "institution_name": "Community Health Centre"
    }
  },
  {
    "model": "domainlibraries.institution",
    "pk": 6,
    "fields": {
      "created_date": "2018-05-28T04:15:24.920Z",
      "created_by": "saikatdey",
      "updated_date": null,
      "updated_by": null,
      "institution_name": "Farmer Groups"
    }
  },
  {
    "model": "domainlibraries.institution",
    "pk": 7,
    "fields": {
      "created_date": "2018-05-28T04:15:24.920Z",
      "created_by": "saikatdey",
      "updated_date": null,
      "updated_by": null,
      "institution_name": "Farmer Producing  Organisation"
    }
  },
  {
    "model": "domainlibraries.institution",
    "pk": 8,
    "fields": {
      "created_date": "2018-05-28T04:15:24.920Z",
      "created_by": "saikatdey",
      "updated_date": null,
      "updated_by": null,
      "institution_name": "Hospital"
    }
  },
  {
    "model": "domainlibraries.institution",
    "pk": 9,
    "fields": {
      "created_date": "2018-05-28T04:15:24.920Z",
      "created_by": "saikatdey",
      "updated_date": null,
      "updated_by": null,
      "institution_name": "Industrial Training Institute"
    }
  },
  {
    "model": "domainlibraries.institution",
    "pk": 10,
    "fields": {
      "created_date": "2018-05-28T04:15:24.920Z",
      "created_by": "saikatdey",
      "updated_date": null,
      "updated_by": null,
      "institution_name": "Polytechinique College"
    }
  },
  {
    "model": "domainlibraries.institution",
    "pk": 11,
    "fields": {
      "created_date": "2018-05-28T04:15:24.920Z",
      "created_by": "saikatdey",
      "updated_date": null,
      "updated_by": null,
      "institution_name": "Public Health Centres"
    }
  },
  {
    "model": "domainlibraries.institution",
    "pk": 12,
    "fields": {
      "created_date": "2018-05-28T04:15:24.920Z",
      "created_by": "saikatdey",
      "updated_date": null,
      "updated_by": null,
      "institution_name": "School"
    }
  },
  {
    "model": "domainlibraries.institution",
    "pk": 13,
    "fields": {
      "created_date": "2018-05-28T04:15:24.920Z",
      "created_by": "saikatdey",
      "updated_date": null,
      "updated_by": null,
      "institution_name": "Self Help Groups"
    }
  },
  {
    "model": "domainlibraries.institution",
    "pk": 14,
    "fields": {
      "created_date": "2018-05-28T04:15:24.920Z",
      "created_by": "saikatdey",
      "updated_date": null,
      "updated_by": null,
      "institution_name": "SHG Federation"
    }
  },
  {
    "model": "domainlibraries.institution",
    "pk": 15,
    "fields": {
      "created_date": "2018-05-28T04:15:24.920Z",
      "created_by": "saikatdey",
      "updated_date": null,
      "updated_by": null,
      "institution_name": "Tution Centre"
    }
  },
  {
    "model": "domainlibraries.institution",
    "pk": 16,
    "fields": {
      "created_date": "2018-05-28T04:15:24.920Z",
      "created_by": "saikatdey",
      "updated_date": null,
      "updated_by": null,
      "institution_name": "Vocational Training Centres"
    }
  }
]
