[
  {
    "model": "domainlibraries.datatype",
    "pk": 1,
    "fields": {
      "created_date": "2018-07-03T14:53:43.644Z",
      "created_by": "saikatdey",
      "updated_date": null,
      "updated_by": null,
      "data_type": "boolean"
    }
  },
  {
    "model": "domainlibraries.datatype",
    "pk": 2,
    "fields": {
      "created_date": "2018-07-03T14:53:50.657Z",
      "created_by": "saikatdey",
      "updated_date": null,
      "updated_by": null,
      "data_type": "varchar"
    }
  },
  {
    "model": "domainlibraries.datatype",
    "pk": 3,
    "fields": {
      "created_date": "2018-07-03T14:54:11.116Z",
      "created_by": "saikatdey",
      "updated_date": null,
      "updated_by": null,
      "data_type": "integer"
    }
  },
  {
    "model": "domainlibraries.datatype",
    "pk": 4,
    "fields": {
      "created_date": "2018-07-03T14:54:14.855Z",
      "created_by": "saikatdey",
      "updated_date": null,
      "updated_by": null,
      "data_type": "date"
    }
  },
  {
    "model": "domainlibraries.datatype",
    "pk": 5,
    "fields": {
      "created_date": "2018-07-03T14:54:22.256Z",
      "created_by": "saikatdey",
      "updated_date": null,
      "updated_by": null,
      "data_type": "timestamp"
    }
  },
  {
    "model": "domainlibraries.datatype",
    "pk": 6,
    "fields": {
      "created_date": "2018-07-03T14:54:22.256Z",
      "created_by": "saikatdey",
      "updated_date": null,
      "updated_by": null,
      "data_type": "numeric"
    }
  }
]
