project_name,template_name,file_name,focus_area,template_type
akshita2,temp1,cisco/Madhi_Outcomes_2020_08_06T08_09_49.024951.csv,3,Beneficiary
akshita2,temp2,cisco/CLAPAssessment_2020_08_06T07_33_22.927493.csv,3,Beneficiary
akshita2,temp3,cisco/CLAPImplementation_2020_08_06T07_27_54.168593.csv,3,Beneficiary
