project_name,task_name,task_description,priority,status,start_date,end_date,tags,milestone_name
akshita2,task12289,desc,high,Completed,14/07/2019,31/08/2019,tag1,nnn
akshita2,task322788,desc,high,Completed,14/07/2019,31/08/2019,tag2,vvv
akshita2,task33999,desc,hign,Completed,14/07/2019,31/08/2019,tag3,
