[
  {
    "model": "domainlibraries.subfocusarea",
    "pk": 1,
    "fields": {
      "created_date": "2018-05-28T03:47:10.769Z",
      "created_by": "saikatdey",
      "updated_date": null,
      "updated_by": null,
      "focus_area_name": "Arts, Culture and Heritage",
      "sub_focus_area_name": "Conservation of monuments/heritage"
    }
  },
  {
    "model": "domainlibraries.subfocusarea",
    "pk": 2,
    "fields": {
      "created_date": "2018-05-28T03:47:10.769Z",
      "created_by": "saikatdey",
      "updated_date": null,
      "updated_by": null,
      "focus_area_name": "Arts, Culture and Heritage",
      "sub_focus_area_name": "Conservation of traditional arts and crafts"
    }
  },
  {
    "model": "domainlibraries.subfocusarea",
    "pk": 3,
    "fields": {
      "created_date": "2018-05-28T03:47:10.769Z",
      "created_by": "saikatdey",
      "updated_date": null,
      "updated_by": null,
      "focus_area_name": "Arts, Culture and Heritage",
      "sub_focus_area_name": "Conservation of tribal languages and culture"
    }
  },
  {
    "model": "domainlibraries.subfocusarea",
    "pk": 4,
    "fields": {
      "created_date": "2018-05-28T03:47:10.769Z",
      "created_by": "saikatdey",
      "updated_date": null,
      "updated_by": null,
      "focus_area_name": "Arts, Culture and Heritage",
      "sub_focus_area_name": "Preservation of literature"
    }
  },
  {
    "model": "domainlibraries.subfocusarea",
    "pk": 5,
    "fields": {
      "created_date": "2018-05-28T03:47:10.769Z",
      "created_by": "saikatdey",
      "updated_date": null,
      "updated_by": null,
      "focus_area_name": "Arts, Culture and Heritage",
      "sub_focus_area_name": "Preservation of performing arts"
    }
  },
  {
    "model": "domainlibraries.subfocusarea",
    "pk": 6,
    "fields": {
      "created_date": "2018-05-28T03:47:10.769Z",
      "created_by": "saikatdey",
      "updated_date": null,
      "updated_by": null,
      "focus_area_name": "Arts, Culture and Heritage",
      "sub_focus_area_name": "Promotion of sports"
    }
  },
  {
    "model": "domainlibraries.subfocusarea",
    "pk": 7,
    "fields": {
      "created_date": "2018-05-28T03:47:10.769Z",
      "created_by": "saikatdey",
      "updated_date": null,
      "updated_by": null,
      "focus_area_name": "Disaster Management",
      "sub_focus_area_name": "Disaster Prevention"
    }
  },
  {
    "model": "domainlibraries.subfocusarea",
    "pk": 8,
    "fields": {
      "created_date": "2018-05-28T03:47:10.769Z",
      "created_by": "saikatdey",
      "updated_date": null,
      "updated_by": null,
      "focus_area_name": "Disaster Management",
      "sub_focus_area_name": "Disaster relief"
    }
  },
  {
    "model": "domainlibraries.subfocusarea",
    "pk": 9,
    "fields": {
      "created_date": "2018-05-28T03:47:10.769Z",
      "created_by": "saikatdey",
      "updated_date": null,
      "updated_by": null,
      "focus_area_name": "Education",
      "sub_focus_area_name": "Higher Education"
    }
  },
  {
    "model": "domainlibraries.subfocusarea",
    "pk": 10,
    "fields": {
      "created_date": "2018-05-28T03:47:10.769Z",
      "created_by": "saikatdey",
      "updated_date": null,
      "updated_by": null,
      "focus_area_name": "Education",
      "sub_focus_area_name": "Pre-primary Education"
    }
  },
  {
    "model": "domainlibraries.subfocusarea",
    "pk": 11,
    "fields": {
      "created_date": "2018-05-28T03:47:10.769Z",
      "created_by": "saikatdey",
      "updated_date": null,
      "updated_by": null,
      "focus_area_name": "Education",
      "sub_focus_area_name": "Primary Education"
    }
  },
  {
    "model": "domainlibraries.subfocusarea",
    "pk": 12,
    "fields": {
      "created_date": "2018-05-28T03:47:10.769Z",
      "created_by": "saikatdey",
      "updated_date": null,
      "updated_by": null,
      "focus_area_name": "Education",
      "sub_focus_area_name": "Secondary Education"
    }
  },
  {
    "model": "domainlibraries.subfocusarea",
    "pk": 13,
    "fields": {
      "created_date": "2018-05-28T03:47:10.769Z",
      "created_by": "saikatdey",
      "updated_date": null,
      "updated_by": null,
      "focus_area_name": "Employment",
      "sub_focus_area_name": "Access to market"
    }
  },
  {
    "model": "domainlibraries.subfocusarea",
    "pk": 14,
    "fields": {
      "created_date": "2018-05-28T03:47:10.769Z",
      "created_by": "saikatdey",
      "updated_date": null,
      "updated_by": null,
      "focus_area_name": "Employment",
      "sub_focus_area_name": "Economic independence of differently abled"
    }
  },
  {
    "model": "domainlibraries.subfocusarea",
    "pk": 15,
    "fields": {
      "created_date": "2018-05-28T03:47:10.769Z",
      "created_by": "saikatdey",
      "updated_date": null,
      "updated_by": null,
      "focus_area_name": "Employment",
      "sub_focus_area_name": "Economic independence of tribals"
    }
  },
  {
    "model": "domainlibraries.subfocusarea",
    "pk": 16,
    "fields": {
      "created_date": "2018-05-28T03:47:10.769Z",
      "created_by": "saikatdey",
      "updated_date": null,
      "updated_by": null,
      "focus_area_name": "Employment",
      "sub_focus_area_name": "Economic independence of women"
    }
  },
  {
    "model": "domainlibraries.subfocusarea",
    "pk": 17,
    "fields": {
      "created_date": "2018-05-28T03:47:10.769Z",
      "created_by": "saikatdey",
      "updated_date": null,
      "updated_by": null,
      "focus_area_name": "Employment",
      "sub_focus_area_name": "Financial Inclusion"
    }
  },
  {
    "model": "domainlibraries.subfocusarea",
    "pk": 18,
    "fields": {
      "created_date": "2018-05-28T03:47:10.769Z",
      "created_by": "saikatdey",
      "updated_date": null,
      "updated_by": null,
      "focus_area_name": "Employment",
      "sub_focus_area_name": "Rural Employment"
    }
  },
  {
    "model": "domainlibraries.subfocusarea",
    "pk": 19,
    "fields": {
      "created_date": "2018-05-28T03:47:10.769Z",
      "created_by": "saikatdey",
      "updated_date": null,
      "updated_by": null,
      "focus_area_name": "Employment",
      "sub_focus_area_name": "Vocational training and livelihoods"
    }
  },
  {
    "model": "domainlibraries.subfocusarea",
    "pk": 20,
    "fields": {
      "created_date": "2018-05-28T03:47:10.769Z",
      "created_by": "saikatdey",
      "updated_date": null,
      "updated_by": null,
      "focus_area_name": "Environment",
      "sub_focus_area_name": "Conservation of forest"
    }
  },
  {
    "model": "domainlibraries.subfocusarea",
    "pk": 21,
    "fields": {
      "created_date": "2018-05-28T03:47:10.769Z",
      "created_by": "saikatdey",
      "updated_date": null,
      "updated_by": null,
      "focus_area_name": "Environment",
      "sub_focus_area_name": "Ecological sustainable construction and development"
    }
  },
  {
    "model": "domainlibraries.subfocusarea",
    "pk": 22,
    "fields": {
      "created_date": "2018-05-28T03:47:10.769Z",
      "created_by": "saikatdey",
      "updated_date": null,
      "updated_by": null,
      "focus_area_name": "Environment",
      "sub_focus_area_name": "Renewable energy"
    }
  },
  {
    "model": "domainlibraries.subfocusarea",
    "pk": 23,
    "fields": {
      "created_date": "2018-05-28T03:47:10.769Z",
      "created_by": "saikatdey",
      "updated_date": null,
      "updated_by": null,
      "focus_area_name": "Environment",
      "sub_focus_area_name": "Water"
    }
  },
  {
    "model": "domainlibraries.subfocusarea",
    "pk": 24,
    "fields": {
      "created_date": "2018-05-28T03:47:10.769Z",
      "created_by": "saikatdey",
      "updated_date": null,
      "updated_by": null,
      "focus_area_name": "Environment",
      "sub_focus_area_name": "Wildlife conservation and animal rights"
    }
  },
  {
    "model": "domainlibraries.subfocusarea",
    "pk": 25,
    "fields": {
      "created_date": "2018-05-28T03:47:10.769Z",
      "created_by": "saikatdey",
      "updated_date": null,
      "updated_by": null,
      "focus_area_name": "Food and Agriculture",
      "sub_focus_area_name": "Agriculture"
    }
  },
  {
    "model": "domainlibraries.subfocusarea",
    "pk": 26,
    "fields": {
      "created_date": "2018-05-28T03:47:10.769Z",
      "created_by": "saikatdey",
      "updated_date": null,
      "updated_by": null,
      "focus_area_name": "Food and Agriculture",
      "sub_focus_area_name": "Food Security"
    }
  },
  {
    "model": "domainlibraries.subfocusarea",
    "pk": 27,
    "fields": {
      "created_date": "2018-05-28T03:47:10.769Z",
      "created_by": "saikatdey",
      "updated_date": null,
      "updated_by": null,
      "focus_area_name": "Food and Agriculture",
      "sub_focus_area_name": "Irrigation"
    }
  },
  {
    "model": "domainlibraries.subfocusarea",
    "pk": 28,
    "fields": {
      "created_date": "2018-05-28T03:47:10.769Z",
      "created_by": "saikatdey",
      "updated_date": null,
      "updated_by": null,
      "focus_area_name": "Food and Agriculture",
      "sub_focus_area_name": "Organic Farming"
    }
  },
  {
    "model": "domainlibraries.subfocusarea",
    "pk": 29,
    "fields": {
      "created_date": "2018-05-28T03:47:10.769Z",
      "created_by": "saikatdey",
      "updated_date": null,
      "updated_by": null,
      "focus_area_name": "Healthcare",
      "sub_focus_area_name": "AIDS and infection diseases"
    }
  },
  {
    "model": "domainlibraries.subfocusarea",
    "pk": 30,
    "fields": {
      "created_date": "2018-05-28T03:47:10.769Z",
      "created_by": "saikatdey",
      "updated_date": null,
      "updated_by": null,
      "focus_area_name": "Healthcare",
      "sub_focus_area_name": "Chronic diseases"
    }
  },
  {
    "model": "domainlibraries.subfocusarea",
    "pk": 31,
    "fields": {
      "created_date": "2018-05-28T03:47:10.769Z",
      "created_by": "saikatdey",
      "updated_date": null,
      "updated_by": null,
      "focus_area_name": "Healthcare",
      "sub_focus_area_name": "De-addiction/rehabilitation and mental health counselling"
    }
  },
  {
    "model": "domainlibraries.subfocusarea",
    "pk": 32,
    "fields": {
      "created_date": "2018-05-28T03:47:10.769Z",
      "created_by": "saikatdey",
      "updated_date": null,
      "updated_by": null,
      "focus_area_name": "Healthcare",
      "sub_focus_area_name": "Elderly Care"
    }
  },
  {
    "model": "domainlibraries.subfocusarea",
    "pk": 33,
    "fields": {
      "created_date": "2018-05-28T03:47:10.769Z",
      "created_by": "saikatdey",
      "updated_date": null,
      "updated_by": null,
      "focus_area_name": "Healthcare",
      "sub_focus_area_name": "Immunisation"
    }
  },
  {
    "model": "domainlibraries.subfocusarea",
    "pk": 34,
    "fields": {
      "created_date": "2018-05-28T03:47:10.769Z",
      "created_by": "saikatdey",
      "updated_date": null,
      "updated_by": null,
      "focus_area_name": "Healthcare",
      "sub_focus_area_name": "Malnutritition"
    }
  },
  {
    "model": "domainlibraries.subfocusarea",
    "pk": 35,
    "fields": {
      "created_date": "2018-05-28T03:47:10.769Z",
      "created_by": "saikatdey",
      "updated_date": null,
      "updated_by": null,
      "focus_area_name": "Healthcare",
      "sub_focus_area_name": "Maternal care"
    }
  },
  {
    "model": "domainlibraries.subfocusarea",
    "pk": 36,
    "fields": {
      "created_date": "2018-05-28T03:47:10.769Z",
      "created_by": "saikatdey",
      "updated_date": null,
      "updated_by": null,
      "focus_area_name": "Healthcare",
      "sub_focus_area_name": "Medical care for differently abled"
    }
  },
  {
    "model": "domainlibraries.subfocusarea",
    "pk": 37,
    "fields": {
      "created_date": "2018-05-28T03:47:10.769Z",
      "created_by": "saikatdey",
      "updated_date": null,
      "updated_by": null,
      "focus_area_name": "Healthcare",
      "sub_focus_area_name": "Neonatal care and child mortality"
    }
  },
  {
    "model": "domainlibraries.subfocusarea",
    "pk": 38,
    "fields": {
      "created_date": "2018-05-28T03:47:10.769Z",
      "created_by": "saikatdey",
      "updated_date": null,
      "updated_by": null,
      "focus_area_name": "Healthcare",
      "sub_focus_area_name": "Preventive Healthcare"
    }
  },
  {
    "model": "domainlibraries.subfocusarea",
    "pk": 39,
    "fields": {
      "created_date": "2018-05-28T03:47:10.769Z",
      "created_by": "saikatdey",
      "updated_date": null,
      "updated_by": null,
      "focus_area_name": "Healthcare",
      "sub_focus_area_name": "Primary Healthcare"
    }
  },
  {
    "model": "domainlibraries.subfocusarea",
    "pk": 40,
    "fields": {
      "created_date": "2018-05-28T03:47:10.769Z",
      "created_by": "saikatdey",
      "updated_date": null,
      "updated_by": null,
      "focus_area_name": "Healthcare",
      "sub_focus_area_name": "Terminal Care"
    }
  },
  {
    "model": "domainlibraries.subfocusarea",
    "pk": 41,
    "fields": {
      "created_date": "2018-05-28T03:47:10.769Z",
      "created_by": "saikatdey",
      "updated_date": null,
      "updated_by": null,
      "focus_area_name": "Healthcare",
      "sub_focus_area_name": "Tertiary Care"
    }
  },
  {
    "model": "domainlibraries.subfocusarea",
    "pk": 42,
    "fields": {
      "created_date": "2018-05-28T03:47:10.769Z",
      "created_by": "saikatdey",
      "updated_date": null,
      "updated_by": null,
      "focus_area_name": "Human Rights",
      "sub_focus_area_name": "Child welfare"
    }
  },
  {
    "model": "domainlibraries.subfocusarea",
    "pk": 43,
    "fields": {
      "created_date": "2018-05-28T03:47:10.769Z",
      "created_by": "saikatdey",
      "updated_date": null,
      "updated_by": null,
      "focus_area_name": "Human Rights",
      "sub_focus_area_name": "Justice for undertrials"
    }
  },
  {
    "model": "domainlibraries.subfocusarea",
    "pk": 44,
    "fields": {
      "created_date": "2018-05-28T03:47:10.769Z",
      "created_by": "saikatdey",
      "updated_date": null,
      "updated_by": null,
      "focus_area_name": "Human Rights",
      "sub_focus_area_name": "Pendency of cases"
    }
  },
  {
    "model": "domainlibraries.subfocusarea",
    "pk": 45,
    "fields": {
      "created_date": "2018-05-28T03:47:10.769Z",
      "created_by": "saikatdey",
      "updated_date": null,
      "updated_by": null,
      "focus_area_name": "Human Rights",
      "sub_focus_area_name": "Physical security of vulnerable sectiors"
    }
  },
  {
    "model": "domainlibraries.subfocusarea",
    "pk": 46,
    "fields": {
      "created_date": "2018-05-28T03:47:10.769Z",
      "created_by": "saikatdey",
      "updated_date": null,
      "updated_by": null,
      "focus_area_name": "Human Rights",
      "sub_focus_area_name": "Rehabilitation of criminals/prisoners"
    }
  },
  {
    "model": "domainlibraries.subfocusarea",
    "pk": 47,
    "fields": {
      "created_date": "2018-05-28T03:47:10.769Z",
      "created_by": "saikatdey",
      "updated_date": null,
      "updated_by": null,
      "focus_area_name": "Human Rights",
      "sub_focus_area_name": "Women welfare, safety, rights"
    }
  },
  {
    "model": "domainlibraries.subfocusarea",
    "pk": 48,
    "fields": {
      "created_date": "2018-05-28T03:47:10.769Z",
      "created_by": "saikatdey",
      "updated_date": null,
      "updated_by": null,
      "focus_area_name": "Infrastructure",
      "sub_focus_area_name": "Rural Infrastructure"
    }
  },
  {
    "model": "domainlibraries.subfocusarea",
    "pk": 49,
    "fields": {
      "created_date": "2018-05-28T03:47:10.769Z",
      "created_by": "saikatdey",
      "updated_date": null,
      "updated_by": null,
      "focus_area_name": "Infrastructure",
      "sub_focus_area_name": "Urban Infrastructure"
    }
  },
  {
    "model": "domainlibraries.subfocusarea",
    "pk": 50,
    "fields": {
      "created_date": "2018-05-28T03:47:10.769Z",
      "created_by": "saikatdey",
      "updated_date": null,
      "updated_by": null,
      "focus_area_name": "Healthcare",
      "sub_focus_area_name": "Mother and Child"
    }
  },
  {
    "model": "domainlibraries.subfocusarea",
    "pk": 51,
    "fields": {
      "created_date": "2018-05-28T03:47:10.769Z",
      "created_by": "saikatdey",
      "updated_date": null,
      "updated_by": null,
      "focus_area_name": "Healthcare",
      "sub_focus_area_name": "Public Health System"
    }
  }
]
