[
  {
    "model": "domainlibraries.ngoselectionchecklist",
    "pk": 1,
    "fields": {
      "created_date": "2018-06-08T09:18:13.977Z",
      "created_by": "saikatdey",
      "updated_date": null,
      "updated_by": null,
      "head": "Legal Document Checklist",
      "detail": "Registration Certificate",
      "notes": null
    }
  },
  {
    "model": "domainlibraries.ngoselectionchecklist",
    "pk": 2,
    "fields": {
      "created_date": "2018-06-08T09:18:13.977Z",
      "created_by": "saikatdey",
      "updated_date": null,
      "updated_by": null,
      "head": "Legal Document Checklist",
      "detail": "Registration Certificate under Section 12A of the IT Act",
      "notes": null
    }
  },
  {
    "model": "domainlibraries.ngoselectionchecklist",
    "pk": 3,
    "fields": {
      "created_date": "2018-06-08T09:18:13.977Z",
      "created_by": "saikatdey",
      "updated_date": null,
      "updated_by": null,
      "head": "Legal Document Checklist",
      "detail": "Audited Accounts of last three Financial Years",
      "notes": null
    }
  },
  {
    "model": "domainlibraries.ngoselectionchecklist",
    "pk": 4,
    "fields": {
      "created_date": "2018-06-08T09:18:13.977Z",
      "created_by": "saikatdey",
      "updated_date": null,
      "updated_by": null,
      "head": "Legal Document Checklist",
      "detail": "IT Exemption Certificate under Section 35AC, if available",
      "notes": null
    }
  },
  {
    "model": "domainlibraries.ngoselectionchecklist",
    "pk": 5,
    "fields": {
      "created_date": "2018-06-08T09:18:13.977Z",
      "created_by": "saikatdey",
      "updated_date": null,
      "updated_by": null,
      "head": "Legal Document Checklist",
      "detail": "IT Exemption (lifetime validity) Certificate under Section 80G",
      "notes": null
    }
  },
  {
    "model": "domainlibraries.ngoselectionchecklist",
    "pk": 6,
    "fields": {
      "created_date": "2018-06-08T09:18:13.977Z",
      "created_by": "saikatdey",
      "updated_date": null,
      "updated_by": null,
      "head": "Legal Document Checklist",
      "detail": "Acknowledgement of Income Tax Return along with IT Return filed (last three Financial Years)",
      "notes": null
    }
  },
  {
    "model": "domainlibraries.ngoselectionchecklist",
    "pk": 7,
    "fields": {
      "created_date": "2018-06-08T09:18:13.977Z",
      "created_by": "saikatdey",
      "updated_date": null,
      "updated_by": null,
      "head": "Legal Document Checklist",
      "detail": "FCRA Certificate (if any) and latest FCRA Return in Form FC-3",
      "notes": null
    }
  },
  {
    "model": "domainlibraries.ngoselectionchecklist",
    "pk": 8,
    "fields": {
      "created_date": "2018-06-08T09:18:13.977Z",
      "created_by": "saikatdey",
      "updated_date": null,
      "updated_by": null,
      "head": "Legal Document Checklist",
      "detail": "List of Directors on Company Letter Pad",
      "notes": null
    }
  },
  {
    "model": "domainlibraries.ngoselectionchecklist",
    "pk": 9,
    "fields": {
      "created_date": "2018-06-08T09:18:13.977Z",
      "created_by": "saikatdey",
      "updated_date": null,
      "updated_by": null,
      "head": "Legal Document Checklist",
      "detail": "Cancelled Cheque",
      "notes": null
    }
  },
  {
    "model": "domainlibraries.ngoselectionchecklist",
    "pk": 10,
    "fields": {
      "created_date": "2018-06-08T09:18:13.977Z",
      "created_by": "saikatdey",
      "updated_date": null,
      "updated_by": null,
      "head": "Legal Document Checklist",
      "detail": "Pan Card",
      "notes": null
    }
  },
  {
    "model": "domainlibraries.ngoselectionchecklist",
    "pk": 11,
    "fields": {
      "created_date": "2018-06-08T09:18:13.977Z",
      "created_by": "saikatdey",
      "updated_date": null,
      "updated_by": null,
      "head": "Legal Document Checklist",
      "detail": "Annual Reports of last 3 Financial Years",
      "notes": null
    }
  },
  {
    "model": "domainlibraries.ngoselectionchecklist",
    "pk": 12,
    "fields": {
      "created_date": "2018-06-08T09:18:13.977Z",
      "created_by": "saikatdey",
      "updated_date": null,
      "updated_by": null,
      "head": "Legal Document Checklist",
      "detail": "Legal Document Checklist: Other",
      "notes": null
    }
  },
  {
    "model": "domainlibraries.ngoselectionchecklist",
    "pk": 13,
    "fields": {
      "created_date": "2018-06-08T09:18:13.977Z",
      "created_by": "saikatdey",
      "updated_date": null,
      "updated_by": null,
      "head": "Key considerations for selection of NGO",
      "detail": "Fitment within the (Ability to absorb the) proposed budget",
      "notes": "Revenues relative to budget amount"
    }
  },
  {
    "model": "domainlibraries.ngoselectionchecklist",
    "pk": 14,
    "fields": {
      "created_date": "2018-06-08T09:18:13.977Z",
      "created_by": "saikatdey",
      "updated_date": null,
      "updated_by": null,
      "head": "Key considerations for selection of NGO",
      "detail": "Expertise in the focus area (E.g. Education)",
      "notes": "Focus area, sub-area"
    }
  },
  {
    "model": "domainlibraries.ngoselectionchecklist",
    "pk": 15,
    "fields": {
      "created_date": "2018-06-08T09:18:13.977Z",
      "created_by": "saikatdey",
      "updated_date": null,
      "updated_by": null,
      "head": "Key considerations for selection of NGO",
      "detail": "Strong on-ground work experience in specific geographic location",
      "notes": "Geographic location"
    }
  },
  {
    "model": "domainlibraries.ngoselectionchecklist",
    "pk": 16,
    "fields": {
      "created_date": "2018-06-08T09:18:13.977Z",
      "created_by": "saikatdey",
      "updated_date": null,
      "updated_by": null,
      "head": "Key considerations for selection of NGO",
      "detail": "Strong engagement with target segments/Institution (e.g. Women, Farmers, government schools)",
      "notes": "Target segment names"
    }
  },
  {
    "model": "domainlibraries.ngoselectionchecklist",
    "pk": 17,
    "fields": {
      "created_date": "2018-06-08T09:18:13.977Z",
      "created_by": "saikatdey",
      "updated_date": null,
      "updated_by": null,
      "head": "Key considerations for selection of NGO",
      "detail": "Years of working experience",
      "notes": "Number of years"
    }
  },
  {
    "model": "domainlibraries.ngoselectionchecklist",
    "pk": 18,
    "fields": {
      "created_date": "2018-06-08T09:18:13.977Z",
      "created_by": "saikatdey",
      "updated_date": null,
      "updated_by": null,
      "head": "Key considerations for selection of NGO",
      "detail": "Organisational reach",
      "notes": "Ability to reach stated targets"
    }
  },
  {
    "model": "domainlibraries.ngoselectionchecklist",
    "pk": 19,
    "fields": {
      "created_date": "2018-06-08T09:18:13.977Z",
      "created_by": "saikatdey",
      "updated_date": null,
      "updated_by": null,
      "head": "Key considerations for selection of NGO",
      "detail": "Management Ability",
      "notes": "Org charts, program heads, functional alignment"
    }
  },
  {
    "model": "domainlibraries.ngoselectionchecklist",
    "pk": 20,
    "fields": {
      "created_date": "2018-06-08T09:18:13.977Z",
      "created_by": "saikatdey",
      "updated_date": null,
      "updated_by": null,
      "head": "Key considerations for selection of NGO",
      "detail": "Managament Responsiveness",
      "notes": null
    }
  },
  {
    "model": "domainlibraries.ngoselectionchecklist",
    "pk": 21,
    "fields": {
      "created_date": "2018-06-08T09:18:13.977Z",
      "created_by": "saikatdey",
      "updated_date": null,
      "updated_by": null,
      "head": "Key considerations for selection of NGO",
      "detail": "Geographic reach of the organisation today",
      "notes": null
    }
  },
  {
    "model": "domainlibraries.ngoselectionchecklist",
    "pk": 22,
    "fields": {
      "created_date": "2018-06-08T09:18:13.977Z",
      "created_by": "saikatdey",
      "updated_date": null,
      "updated_by": null,
      "head": "Key considerations for selection of NGO",
      "detail": "Exclusion based on tie-ups with specific corporations",
      "notes": null
    }
  },
  {
    "model": "domainlibraries.ngoselectionchecklist",
    "pk": 23,
    "fields": {
      "created_date": "2018-06-08T09:18:13.977Z",
      "created_by": "saikatdey",
      "updated_date": null,
      "updated_by": null,
      "head": "Key considerations for selection of NGO",
      "detail": "Inclusion based on tie-ups with specific types of corporations",
      "notes": null
    }
  },
  {
    "model": "domainlibraries.ngoselectionchecklist",
    "pk": 24,
    "fields": {
      "created_date": "2018-06-08T09:18:13.977Z",
      "created_by": "saikatdey",
      "updated_date": null,
      "updated_by": null,
      "head": "Key considerations for selection of NGO",
      "detail": "Ability to start the program immediately",
      "notes": null
    }
  },
  {
    "model": "domainlibraries.ngoselectionchecklist",
    "pk": 25,
    "fields": {
      "created_date": "2018-06-08T09:18:13.977Z",
      "created_by": "saikatdey",
      "updated_date": null,
      "updated_by": null,
      "head": "Key considerations for selection of NGO",
      "detail": "Institution alignment",
      "notes": null
    }
  },
  {
    "model": "domainlibraries.ngoselectionchecklist",
    "pk": 26,
    "fields": {
      "created_date": "2018-06-08T09:18:13.977Z",
      "created_by": "saikatdey",
      "updated_date": null,
      "updated_by": null,
      "head": "Key considerations for selection of NGO",
      "detail": "Impact Evaluation",
      "notes": "Understand their M&E, systems & processes for data collection, knowledge & capacity"
    }
  },
  {
    "model": "domainlibraries.ngoselectionchecklist",
    "pk": 27,
    "fields": {
      "created_date": "2018-06-08T09:18:13.977Z",
      "created_by": "saikatdey",
      "updated_date": null,
      "updated_by": null,
      "head": "Key considerations for selection of NGO",
      "detail": "Key considerations for selection of NGO: Other",
      "notes": null
    }
  },
  {
    "model": "domainlibraries.ngoselectionchecklist",
    "pk": 28,
    "fields": {
      "created_date": "2018-06-08T09:18:13.977Z",
      "created_by": "saikatdey",
      "updated_date": null,
      "updated_by": null,
      "head": "About the NGO",
      "detail": "Corporate [Project] Delivery Team",
      "notes": null
    }
  },
  {
    "model": "domainlibraries.ngoselectionchecklist",
    "pk": 29,
    "fields": {
      "created_date": "2018-06-08T09:18:13.977Z",
      "created_by": "saikatdey",
      "updated_date": null,
      "updated_by": null,
      "head": "About the NGO",
      "detail": "About the Social Program and intervention",
      "notes": null
    }
  },
  {
    "model": "domainlibraries.ngoselectionchecklist",
    "pk": 30,
    "fields": {
      "created_date": "2018-06-08T09:18:13.977Z",
      "created_by": "saikatdey",
      "updated_date": null,
      "updated_by": null,
      "head": "About the NGO",
      "detail": "About the founding team/Leadership",
      "notes": null
    }
  },
  {
    "model": "domainlibraries.ngoselectionchecklist",
    "pk": 31,
    "fields": {
      "created_date": "2018-06-08T09:18:13.977Z",
      "created_by": "saikatdey",
      "updated_date": null,
      "updated_by": null,
      "head": "About the NGO",
      "detail": "Impact Report",
      "notes": null
    }
  },
  {
    "model": "domainlibraries.ngoselectionchecklist",
    "pk": 32,
    "fields": {
      "created_date": "2018-06-08T09:18:13.977Z",
      "created_by": "saikatdey",
      "updated_date": null,
      "updated_by": null,
      "head": "About the NGO",
      "detail": "Competitive CSR Donor",
      "notes": null
    }
  },
  {
    "model": "domainlibraries.ngoselectionchecklist",
    "pk": 33,
    "fields": {
      "created_date": "2018-06-08T09:18:13.977Z",
      "created_by": "saikatdey",
      "updated_date": null,
      "updated_by": null,
      "head": "About the NGO",
      "detail": "Particular Criteria/nature of organisation",
      "notes": "Understand their history of CSR funding & implementation"
    }
  },
  {
    "model": "domainlibraries.ngoselectionchecklist",
    "pk": 34,
    "fields": {
      "created_date": "2018-06-08T09:18:13.977Z",
      "created_by": "saikatdey",
      "updated_date": null,
      "updated_by": null,
      "head": "About the NGO",
      "detail": "About the NGO: Other",
      "notes": null
    }
  }
]
